{
    "development": {
        "username": "postgres",
        "password": "a455328fm",
        "database": "assignment",
        "host": "127.0.0.1",
        "port": 5432,
        "dialect": "postgres"
    },
    "production": {
        "username": "postgres",
        "password": "a455328fm",
        "database": "assignment",
        "host": "127.0.0.1",
        "port": 5432,
        "dialect": "postgres"
    },
    "secret_key": "Tv2H4XmUUmyyp8Lp",
    "expire_token_hours": 24
}